273271,153a2000bdcd825a.jpg 0
273271,15f58000e3199b42.jpg 0
273271,17673000a0c20265.jpg 0
273275,102888000bc8828c3.jpg 0
273275,103b98000a6c0c7da.jpg 0
273275,10951a000c7e80c48.jpg 0
273275,11c363000810a0193.jpg 0
273275,11e9e60003dafd1f6.jpg 0
273275,135610000b93669f.jpg 0
273275,13edd0001e390ee5.jpg 0
273275,1945b0007da295bd.jpg 0
273275,2c6f9000325cf07e.jpg 0
273275,2d677000e2713817.jpg 0
273275,2f80a00084881b81.jpg 0
273275,31b2000e87944d3.jpg 0
273275,3b571000c2b1c135.jpg 0
273275,4249e000198996a3.jpg 0
273275,4819b000faa7d854.jpg 0
273275,4ab4000026f80c02.jpg 0
273275,4b31f000e3dad5c2.jpg 0
273275,4b9bc00023bd200b.jpg 0
273275,4c92000016f53672.jpg 0
273275,4fe42000afaa1bc1.jpg 0
273275,5101f00013dc3d14.jpg 0
273275,55ec30007070372c.jpg 0
273275,5bf3000c2383e45.jpg 0
273275,5c1bf00052af8c88.jpg 0
273275,5d05f000758f2a4d.jpg 0
273275,5d31000a11d8024.jpg 0
273275,6a3030000e627a82.jpg 0
273275,7295900051911602.jpg 0
273275,7d700066ec1862.jpg 0
273275,a86000006954719f.jpg 0
273275,b488700068aafddc.jpg 0
273275,c528900015d828a0.jpg 0
273275,ca79e000469160e5.jpg 0
273275,d0363000885e725c.jpg 0
273275,d15910001712b07e.jpg 0
273275,d161900001d998e7.jpg 0
273275,d6318000b565d8b3.jpg 0
273275,f236b000165b7b77.jpg 0
273275,f41420009c45a4c4.jpg 0
273275,f7465000c8e5b15f.jpg 0
273278,1b22e00046ba4ca0.jpg 0
273278,4bae00000eac56e1.jpg 0
273278,4bdfb0009e6aaa0b.jpg 0
273278,4ec4e000d4628564.jpg 0
273278,4f6960006f28e1a7.jpg 0
273278,5c848000bf8a59a9.jpg 0
273278,6d07c000043d8a25.jpg 0
273271,13363000e750e760.jpg 1
273271,13a6b000ae9e331e.jpg 1
273271,14d80000c015be26.jpg 1
273271,14f3200065b09624.jpg 1
273271,16339000851f400a.jpg 1
273271,1658900044000240.jpg 1
273271,16a8600077ea63a8.jpg 1
273271,193d200097e5fefc.jpg 1
273271,225e5000909f6878.jpg 1
273271,22c0c000a5a7388e.jpg 1
273271,22cb0000c1d877a4.jpg 1
273271,22fd900013136968.jpg 1
273271,2707d000b69f9c8e.jpg 1
273271,291e00002044f179.jpg 1
273271,29218000df2a6d8c.jpg 1
273271,2a3f70002ea7978b.jpg 1
273271,2a413000fdc7d2ac.jpg 1
273271,2c51f000e6e6cbf7.jpg 1
273271,2db89000def80aa2.jpg 1
273271,2dcfd0007a9c41b7.jpg 1
273271,34d50002f5cb3ce.jpg 1
273271,49880000471782c.jpg 1
273271,5cc400000286644.jpg 1
273271,9003000eebc53bf.jpg 1
273271,9f180009ffda163.jpg 1
273271,c8840006855cae7.jpg 1
273271,ca0c00096cf36b4.jpg 1
273271,ff2a000d715348a.jpg 1
273271,ff64000f8633fe2.jpg 1
273275,1a52400079eaaca5.jpg 1
273275,1af89000967d8db5.jpg 1
273275,1cd23000392dc3a2.jpg 1
273275,1d5e000f6368ac4.jpg 1
273275,1d6b30001dbfd796.jpg 1
273275,1dd0f000c9356aaa.jpg 1
273275,1ddb000b0ac7e28.jpg 1
273275,1e441000b026dcfb.jpg 1
273275,1e7330003dc66540.jpg 1
273275,2a504000f3bee032.jpg 1
273275,2a9d00014030c01.jpg 1
273275,2af280004b80f5bb.jpg 1
273275,2bd6000e2242d72.jpg 1
273275,2bf7c0000d12a3f7.jpg 1
273275,2d1b000cae0c1d0.jpg 1
273275,2d6000041d12579.jpg 1
273275,2fbe1000a6f7016a.jpg 1
273275,3b72000041c8438b.jpg 1
273275,3bda00090fd1c88.jpg 1
273275,3bdf5000548025f2.jpg 1
273275,7c9dd00027b99026.jpg 1